AC MM1_HSA_IMR-90_NFE2L2
XX
ID NFE2L2
XX
DE MM1_HSA_IMR-90_NFE2L2 NFE2L2 ; from MethMotif
PO	A	C	G	T
1	409	35	154	2
2	1	2	0	597
3	0	2	584	14
4	587	10	1	2
5	8	453	106	33
6	45	9	17	529
7	75	441	33	51
8	478	1	69	52
9	21	43	492	44
10	53	478	42	27
11	411	53	52	84
12	228	95	126	151
13	196	63	88	253
14	177	83	66	274
15	136	157	64	243
XX
CC program: MethMotif
XX
//
