MEME version 4

ALPHABET= ACGT

strands: + -

Background letter frequencies
A 0.28000 C 0.22000 G 0.22000 T 0.28000 

MOTIF MM1_HSA_IMR-90_NFE2L2 NFE2L2

letter-probability matrix: alength= 4 w= 15 nsites= 600 E= 1.9e-1023
  0.681667	  0.058333	  0.256667	  0.003333	
  0.001667	  0.003333	  0.000000	  0.995000	
  0.000000	  0.003333	  0.973333	  0.023333	
  0.978333	  0.016667	  0.001667	  0.003333	
  0.013333	  0.755000	  0.176667	  0.055000	
  0.075000	  0.015000	  0.028333	  0.881667	
  0.125000	  0.735000	  0.055000	  0.085000	
  0.796667	  0.001667	  0.115000	  0.086667	
  0.035000	  0.071667	  0.820000	  0.073333	
  0.088333	  0.796667	  0.070000	  0.045000	
  0.685000	  0.088333	  0.086667	  0.140000	
  0.380000	  0.158333	  0.210000	  0.251667	
  0.326667	  0.105000	  0.146667	  0.421667	
  0.295000	  0.138333	  0.110000	  0.456667	
  0.226667	  0.261667	  0.106667	  0.405000	
