CEBPB	39628	35147	YES	1	MA0466.1	CEBPB_HUMAN.H11MO.0.A
CTCF	38644	36878	YES	1	MA0139.1	CTCF_HUMAN.H11MO.0.A
SMC3	26777	28106	NO	0	NA	NA
CHD1	625	1802	NO	0	NA	NA
RCOR1	1580	5610	NO	0	NA	NA
ELK1	1040	2244	YES	1	MA0028.2	ELK1_HUMAN.H11MO.0.B
NFE2L2	8533	11763	YES	1	MA0150.1	NF2L2_HUMAN.H11MO.0.A
MAFK	31458	28595	YES	1	MA0496.1	MAFK_HUMAN.H11MO.0.A
RAD21	35166	32654	NO	0	NA	NA
RFX5	1907	2322	YES	1	MA0510.1	RFX5_HUMAN.H11MO.0.A
BHLHE40	12363	18467	YES	1	MA0464.2	BHE40_HUMAN.H11MO.0.A
USF2	11811	13973	YES	1	MA0526.1	USF2_HUMAN.H11MO.0.A
